Project 1: Exploratory Data Analysis
…
##              population urban_ratio      income
## population   1.00000000  -0.0566081 -0.04864217
## urban_ratio -0.05660810   1.0000000  0.64779412
## income      -0.04864217   0.6477941  1.00000000

The select function, dplyr function, was used to make a correlational matrix of the numeric values in the dataset. It shows a reltively strong postive correlation between the ratio of urban population and the income per person. This means as more population of a country is at urban areas, the more likely the average income per person increases as well. This shows a correlation of wealth and urbanization, which was predicted. There is a small negative correlation between total poplation of the country and income per person as well as urban ratio. This is unexpected, as I thought with more people there would be more job opportunities and labour supply for production output. This shows a small corelation aganist that.

### Mean income of each country using group_by and summarize
### functions
Full_Data %>% group_by(country) %>% summarize(mean(income, na.rm = T))

## # A tibble: 195 x 2
##    country             `mean(income, na.rm = T)`
##    <chr>                                   <dbl>
##  1 Afghanistan                             1408.
##  2 Albania                                 9232.
##  3 Algeria                                12655 
##  4 Andorra                                41800 
##  5 Angola                                  5679 
##  6 Antigua and Barbuda                    22015 
##  7 Argentina                              17245 
##  8 Armenia                                 6608 
##  9 Australia                              41135 
## 10 Austria                                43085 
## # … with 185 more rows

mean_income_country <- Full_Data %>% group_by(country) %>% summarize(mean(income, 
    na.rm = T))

The group_by and summarize functions were used to find the mean income of each country in the dataset. The highest avergae income per person seems to be in Qatar while the lowest is in Somalia based on the new dataset created, mean_income_country.

# urban ratio of year 2019 using filter and arrange function
Full_Data %>% filter(year == "2019") %>% arrange(desc(urban_ratio, 
    na.rm = T))

## # A tibble: 195 x 5
##    country    year  population urban_ratio income
##    <chr>      <chr>      <dbl>       <dbl>  <dbl>
##  1 Kuwait     2019     4210000       1      64100
##  2 Monaco     2019       39000       1      61400
##  3 Nauru      2019       10800       1      13600
##  4 Singapore  2019     5800000       1      90100
##  5 Qatar      2019     2830000       0.992 113000
##  6 Belgium    2019    11500000       0.98   43500
##  7 San Marino 2019       33900       0.974  57800
##  8 Uruguay    2019     3460000       0.954  20900
##  9 Malta      2019      440000       0.947  39300
## 10 Iceland    2019      339000       0.939  47900
## # … with 185 more rows

The filter and arrange function was used to chose the year of 2019 and isolate the ratio of population living in urban areas from descending order. Suprisingly, the data states that Kuwait has close to hundred percent of population living in an urban enviroment. This is unexpected as I though the highest income country, Qatar, would be the highest urbanization. Moanaco, Kuwait, Naru, and Singapore are all fully urbanized population.

### New variable pop_by_mil created using mutate
Full_Data %>% mutate(pop_by_mil = population/1e+06)

## # A tibble: 3,900 x 6
##    country     year  population urban_ratio income pop_by_mil
##    <chr>       <chr>      <dbl>       <dbl>  <dbl>      <dbl>
##  1 Afghanistan 2000    20800000       0.221    687       20.8
##  2 Afghanistan 2001    21600000       0.222    646       21.6
##  3 Afghanistan 2002    22600000       0.223   1020       22.6
##  4 Afghanistan 2003    23700000       0.224   1060       23.7
##  5 Afghanistan 2004    24700000       0.225   1030       24.7
##  6 Afghanistan 2005    25700000       0.227   1100       25.7
##  7 Afghanistan 2006    26400000       0.229   1120       26.4
##  8 Afghanistan 2007    27100000       0.231   1250       27.1
##  9 Afghanistan 2008    27700000       0.233   1270       27.7
## 10 Afghanistan 2009    28400000       0.235   1500       28.4
## # … with 3,890 more rows
…
